Process data for eDISH plot — process_edish_data • carver
…
merged_data |>
  process_edish_data(
    xvar = "both",
    alt_paramcd = "ALT",
    ast_paramcd = "AST",
    bili_paramcd = "BILI"
  )
#> # A tibble: 254 × 9
#> # Groups:   USUBJID, TRTVAR [254]
#>    USUBJID     TRTVAR                 alt   ast  bili  XVAR text     YVAR TRTTXT
#>    <chr>       <ord>                <dbl> <dbl> <dbl> <dbl> <chr>   <dbl> <fct> 
#>  1 01-701-1015 Placebo              1.21  1.18  0.489 1.21  "Subji… 0.489 Place…
#>  2 01-701-1023 Placebo              0.884 0.833 0.57  0.884 "Subji… 0.57  Place…
#>  3 01-701-1028 Xanomeline High Dose 0.943 0.778 0.896 0.943 "Subji… 0.896 Xanom…
#>  4 01-701-1033 Xanomeline Low Dose  1     0.722 0.733 1     "Subji… 0.733 Xanom…
#>  5 01-701-1034 Xanomeline High Dose 0.75  0.765 0.489 0.765 "Subji… 0.489 Xanom…
#>  6 01-701-1047 Placebo              0.688 0.735 0.407 0.735 "Subji… 0.407 Place…
#>  7 01-701-1097 Xanomeline Low Dose  0.558 0.583 0.489 0.583 "Subji… 0.489 Xanom…
#>  8 01-701-1111 Xanomeline Low Dose  0.719 0.824 0.407 0.824 "Subji… 0.407 Xanom…
#>  9 01-701-1115 Xanomeline Low Dose  0.514 0.722 0.407 0.722 "Subji… 0.407 Xanom…
#> 10 01-701-1118 Placebo              0.372 0.5   0.57  0.5   "Subji… 0.57  Place…
#> # ℹ 244 more rows
…
