Pre-process data for tornado plot — process_tornado_data • carver
…
  adsl_subset = "SAFFL == 'Y'",
  analysis_subset = "TRTEMFL == 'Y'",
  obs_residual = "30",
  fmq_data = NA,
  ae_catvar = "AESEV/AESEVN",
  trtvar = "ARM",
  trt_left = "Xanomeline High Dose",
  trt_right = "Xanomeline Low Dose",
  pctdisp = "TRT",
  denom_subset = NA_character_,
  legendbign = "N",
  yvar = "AESOC"
)
#> mcatstat success
#> # A tibble: 159 × 23
#>    BYVAR1 BYVAR2 DPTVAR DPTVAL CVALUE DENOMN  FREQ DPTVALN BYVAR1N BYVAR2N   PCT
#>    <fct>  <chr>  <chr>  <chr>  <chr>   <int> <int>   <dbl>   <dbl>   <dbl> <dbl>
#>  1 MILD   1      AESOC  CARDI… 8 (12…     65     8       1       1       1 12.3 
#>  2 MILD   1      AESOC  EAR A… 1 ( 1…     65     1       3       1       1  1.54
#>  3 MILD   1      AESOC  EYE D… 1 ( 1…     65     1       4       1       1  1.54
#>  4 MILD   1      AESOC  GASTR… 15 (2…     65    15       5       1       1 23.1 
#>  5 MILD   1      AESOC  GENER… 16 (2…     65    16       6       1       1 24.6 
#>  6 MILD   1      AESOC  INFEC… 11 (1…     65    11       9       1       1 16.9 
#>  7 MILD   1      AESOC  INJUR… 3 ( 4…     65     3      10       1       1  4.62
#>  8 MILD   1      AESOC  INVES… 7 (10…     65     7      11       1       1 10.8 
#>  9 MILD   1      AESOC  METAB… 4 ( 6…     65     4      12       1       1  6.15
#> 10 MILD   1      AESOC  MUSCU… 3 ( 4…     65     3      13       1       1  4.62
#> # ℹ 149 more rows
#> # ℹ 12 more variables: CPCT <chr>, XVAR <fct>, DPTVARN <dbl>, CN <chr>,
#> #   Placebo <dbl>, `Xanomeline High Dose` <dbl>, `Xanomeline Low Dose` <dbl>,
#> #   trt_left <dbl>, trt_right <dbl>, splitN <int>, TRTVAR <chr>, TRTTXT <chr>
…
